{
  "$type": "System.Collections.Generic.List`1[[FrameDataCreator.Models.Template, FrameDataCreator]], System.Private.CoreLib",
  "$values": [
    {
      "$type": "FrameDataCreator.Models.Template, FrameDataCreator",
      "Attributes": {
        "$type": "System.Collections.Generic.List`1[[FrameDataCreator.Models.Common.IAttribute, FrameDataCreator]], System.Private.CoreLib",
        "$values": []
      },
      "Name": "Project Collection",
      "Id": "cad80990-c150-4c76-99f8-ba231abb0b02"
    },
    {
      "$type": "FrameDataCreator.Models.Template, FrameDataCreator",
      "Attributes": {
        "$type": "System.Collections.Generic.List`1[[FrameDataCreator.Models.Common.IAttribute, FrameDataCreator]], System.Private.CoreLib",
        "$values": []
      },
      "Name": "Character",
      "Id": "f28ad913-7f15-452b-86a0-6663423af492"
    },
    {
      "$type": "FrameDataCreator.Models.Template, FrameDataCreator",
      "Attributes": {
        "$type": "System.Collections.Generic.List`1[[FrameDataCreator.Models.Common.IAttribute, FrameDataCreator]], System.Private.CoreLib",
        "$values": []
      },
      "Name": "State",
      "Id": "33b53427-1017-40d0-b276-079efacf9ffc"
    },
    {
      "$type": "FrameDataCreator.Models.Template, FrameDataCreator",
      "Attributes": {
        "$type": "System.Collections.Generic.List`1[[FrameDataCreator.Models.Common.IAttribute, FrameDataCreator]], System.Private.CoreLib",
        "$values": [
          {
            "$type": "FrameDataCreator.Models.Attributes.Animation, FrameDataCreator",
            "ImageListPath": {
              "$type": "System.Collections.Generic.List`1[[System.String, System.Private.CoreLib]], System.Private.CoreLib",
              "$values": []
            },
            "ImageTemplateToCreate": "0674c4ca-bca1-4b0c-893a-de3bd3f399f4",
            "ImagesLayersUID": {
              "$type": "System.Collections.Generic.List`1[[System.String, System.Private.CoreLib]], System.Private.CoreLib",
              "$values": []
            },
            "Default": "folderpath",
            "Value": "",
            "PropertyType": 1,
            "Name": "New Animation",
            "Id": "18616880-f52f-4786-bc06-5bbf6261834c"
          }
        ]
      },
      "Name": "Animation",
      "Id": "01e6d1c1-ad91-4e37-9ede-ac8898f625f7"
    },
    {
      "$type": "FrameDataCreator.Models.Template, FrameDataCreator",
      "Attributes": {
        "$type": "System.Collections.Generic.List`1[[FrameDataCreator.Models.Common.IAttribute, FrameDataCreator]], System.Private.CoreLib",
        "$values": [
          {
            "$type": "FrameDataCreator.Models.Attributes.FrameImage, FrameDataCreator",
            "Index": 0,
            "Duration": 1,
            "ImagePath": "",
            "Default": 0,
            "Value": 0,
            "PropertyType": 2,
            "Name": "New Frame",
            "Id": "cae8c197-8c99-470a-9c62-49c734a860ac"
          }
        ]
      },
      "Name": "Frame",
      "Id": "0674c4ca-bca1-4b0c-893a-de3bd3f399f4"
    },
    {
      "$type": "FrameDataCreator.Models.Template, FrameDataCreator",
      "Attributes": {
        "$type": "System.Collections.Generic.List`1[[FrameDataCreator.Models.Common.IAttribute, FrameDataCreator]], System.Private.CoreLib",
        "$values": [
          {
            "$type": "FrameDataCreator.Models.Attributes.HitBox, FrameDataCreator",
            "Color": {
              "$type": "FrameDataCreator.Models.Common.HBColor, FrameDataCreator",
              "Red": 255,
              "Green": 40,
              "Blue": 30
            },
            "Position": {
              "$type": "FrameDataCreator.Models.Common.Position, FrameDataCreator",
              "X": 0,
              "Y": 0
            },
            "Width": 32,
            "Height": 32,
            "Default": 0,
            "Value": 0,
            "PropertyType": 3,
            "Name": "HitBox",
            "Id": "e9105eca-49ab-4480-b35b-57616cfccb90"
          }
        ]
      },
      "Name": "HitBox",
      "Id": "cac92d32-fa00-4e4c-9e38-4a5784dc61db"
    },
    {
      "$type": "FrameDataCreator.Models.Template, FrameDataCreator",
      "Attributes": {
        "$type": "System.Collections.Generic.List`1[[FrameDataCreator.Models.Common.IAttribute, FrameDataCreator]], System.Private.CoreLib",
        "$values": [
          {
            "$type": "FrameDataCreator.Models.Attributes.HitBox, FrameDataCreator",
            "Color": {
              "$type": "FrameDataCreator.Models.Common.HBColor, FrameDataCreator",
              "Red": 20,
              "Green": 255,
              "Blue": 200
            },
            "Position": {
              "$type": "FrameDataCreator.Models.Common.Position, FrameDataCreator",
              "X": 0,
              "Y": 0
            },
            "Width": 32,
            "Height": 32,
            "Default": 1,
            "Value": 1,
            "PropertyType": 3,
            "Name": "HurtBox",
            "Id": "23a0373d-d773-4e21-8a39-221bf10383e6"
          }
        ]
      },
      "Name": "HurtBox",
      "Id": "ccbf98ef-d281-41ab-8b79-903f925e1753"
    },
    {
      "$type": "FrameDataCreator.Models.Template, FrameDataCreator",
      "Attributes": {
        "$type": "System.Collections.Generic.List`1[[FrameDataCreator.Models.Common.IAttribute, FrameDataCreator]], System.Private.CoreLib",
        "$values": [
          {
            "$type": "FrameDataCreator.Models.Attributes.HitBox, FrameDataCreator",
            "Color": {
              "$type": "FrameDataCreator.Models.Common.HBColor, FrameDataCreator",
              "Red": 255,
              "Green": 150,
              "Blue": 25
            },
            "Position": {
              "$type": "FrameDataCreator.Models.Common.Position, FrameDataCreator",
              "X": 0,
              "Y": 0
            },
            "Width": 32,
            "Height": 32,
            "Default": 2,
            "Value": 2,
            "PropertyType": 3,
            "Name": "GrabBox",
            "Id": "6e16edf7-dade-4519-9d22-83082ddb45b7"
          }
        ]
      },
      "Name": "GrabBox",
      "Id": "4097b43c-f284-43c4-8e3d-6deb32171d55"
    },
    {
      "$type": "FrameDataCreator.Models.Template, FrameDataCreator",
      "Attributes": {
        "$type": "System.Collections.Generic.List`1[[FrameDataCreator.Models.Common.IAttribute, FrameDataCreator]], System.Private.CoreLib",
        "$values": [
          {
            "$type": "FrameDataCreator.Models.Attributes.HitBox, FrameDataCreator",
            "Color": {
              "$type": "FrameDataCreator.Models.Common.HBColor, FrameDataCreator",
              "Red": 200,
              "Green": 200,
              "Blue": 200
            },
            "Position": {
              "$type": "FrameDataCreator.Models.Common.Position, FrameDataCreator",
              "X": 0,
              "Y": 0
            },
            "Width": 32,
            "Height": 32,
            "Default": 3,
            "Value": 3,
            "PropertyType": 3,
            "Name": "PushBox",
            "Id": "21dbbfa4-8a3b-4808-81ce-3a6dec41c7bf"
          }
        ]
      },
      "Name": "PushBox",
      "Id": "eb084d56-b725-4ff0-8faa-b032e89caf00"
    },
    {
      "$type": "FrameDataCreator.Models.Template, FrameDataCreator",
      "Attributes": {
        "$type": "System.Collections.Generic.List`1[[FrameDataCreator.Models.Common.IAttribute, FrameDataCreator]], System.Private.CoreLib",
        "$values": [
          {
            "$type": "FrameDataCreator.Models.Attributes.HitBox, FrameDataCreator",
            "Color": {
              "$type": "FrameDataCreator.Models.Common.HBColor, FrameDataCreator",
              "Red": 50,
              "Green": 150,
              "Blue": 255
            },
            "Position": {
              "$type": "FrameDataCreator.Models.Common.Position, FrameDataCreator",
              "X": 0,
              "Y": 0
            },
            "Width": 32,
            "Height": 32,
            "Default": 4,
            "Value": 4,
            "PropertyType": 3,
            "Name": "ProjectileBox",
            "Id": "4dd42a22-3cfb-443f-9286-28d45ac4a8fa"
          }
        ]
      },
      "Name": "ProjectileBox",
      "Id": "f9b30ff9-7789-4b40-8299-85fa90e34713"
    }
  ]
}